{
  "areas": [
    {
      "id": 1,
      "encargado": "Jose Linares",
      "departamento": "Finanzas",
      "nro_funcionarios": 4
    },
    {
      "id": 2,
      "encargado": "Juan Merida",
      "departamento": "Legal",
      "nro_funcionarios": 6
    },
    {
      "id": 3,
      "encargado": "Maria Fernandez Gutierrez",
      "departamento": "Informatica",
      "nro_funcionarios": "5",
      "genero": "Femenino"
    },
    {
      "id": 4,
      "encargado": "Joseline Narda Salazar",
      "departamento": "Recursos Humanos",
      "nro_funcionarios": 2
    }
  ],
  "asignaciones": [
    {
      "id": 1,
      "areaId": 2,
      "tipo_activo": "Computadoras",
      "modelo": "Dell",
      "estado": "Bueno"
    },
    {
      "id": 2,
      "areaId": 3,
      "tipo_activo": "Muebles",
      "modelo": "Mares",
      "estado": "Nuevo"
    },
    {
      "areaId": 3,
      "tipo_activo": "Computadoras",
      "modelo": "knup",
      "estado": "Bueno",
      "id": 3
    },
    {
      "areaId": 2,
      "tipo_activo": "Computadoras",
      "modelo": "knup",
      "estado": "Bueno",
      "id": 4
    },
    {
      "areaId": 2,
      "tipo_activo": "Computadoras",
      "modelo": "dasdsad",
      "estado": "Bueno",
      "id": 5
    }
  ]
}